# $Header$

# dbdrv: exec fnd bin FNDLOAD bin &phase=daa+51 checkfile:~PROD:~PATH:~FILE &ui_apps 0 Y UPLOAD @FND:ph/115/import/afsload.lct @~PROD:~PATH/~FILE
LANGUAGE = "US"
LDRCONFIG = "afsload.lct 120.2.12010000.3"

#Source Database UAT

#RELEASE_NAME 12.1.3

# -- Begin Entity Definitions -- 

DEFINE MENU
  KEY   MENU_NAME                       VARCHAR2(4000)
  BASE  TYPE                            VARCHAR2(30)
  BASE  LAST_UPDATE_DATE                VARCHAR2(10)
  TRANS USER_MENU_NAME                  VARCHAR2(80)
  TRANS DESCRIPTION                     VARCHAR2(240)
  CTX   OWNER                           VARCHAR2(4000)

  DEFINE ENTRY
    TRANS PROMPT                          VARCHAR2(60)
    TRANS DESCRIPTION                     VARCHAR2(240)
    BASE  GRANT_FLAG                      VARCHAR2(1)
    BASE  LAST_UPDATE_DATE                VARCHAR2(10)
    CTX   SUBMENU                         REFERENCES MENU
    CTX   FUNCTION                        REFERENCES FUNCTION
    CTX   OWNER                           VARCHAR2(4000)
  END ENTRY
END MENU

DEFINE FUNCTION
  KEY   FUNCTION_NAME                   VARCHAR2(4000)
  BASE  FORM                            REFERENCES FORM
  BASE  TYPE                            VARCHAR2(30)
  BASE  PARAMETERS                      VARCHAR2(4000)
  BASE  WEB_HOST_NAME                   VARCHAR2(4000)
  BASE  WEB_AGENT_NAME                  VARCHAR2(4000)
  BASE  WEB_HTML_CALL                   VARCHAR2(4000)
  BASE  WEB_ENCRYPT_PARAMETERS          VARCHAR2(4000)
  BASE  WEB_SECURED                     VARCHAR2(4000)
  BASE  WEB_ICON                        VARCHAR2(4000)
  BASE  FUNC_OBJECT                     REFERENCES OBJECT
  BASE  OBJECT_NAME                     REFERENCES OBJECT
  BASE  REGION_APPLICATION_SHORT_NAME   VARCHAR2(50)
  BASE  REGION_APPLICATION_NAME         VARCHAR2(50)
  BASE  REGION_CODE                     VARCHAR2(4000)
  BASE  LAST_UPDATE_DATE                VARCHAR2(10)
  BASE  MAINTENANCE_MODE_SUPPORT        VARCHAR2(8)
  BASE  CONTEXT_DEPENDENCE              VARCHAR2(8)
  BASE  JRAD_REF_PATH                   VARCHAR2(4000)
  TRANS USER_FUNCTION_NAME              VARCHAR2(80)
  TRANS DESCRIPTION                     VARCHAR2(240)
  CTX   OWNER                           VARCHAR2(4000)
END FUNCTION

DEFINE OBJECT
  KEY   OBJ_NAME                        VARCHAR2(4000)
  BASE  APPLICATION_SHORT_NAME          VARCHAR2(50)
  BASE  DATABASE_OBJECT_NAME            VARCHAR2(30)
  BASE  PK1_COLUMN_NAME                 VARCHAR2(30)
  BASE  PK2_COLUMN_NAME                 VARCHAR2(30)
  BASE  PK3_COLUMN_NAME                 VARCHAR2(30)
  BASE  PK4_COLUMN_NAME                 VARCHAR2(30)
  BASE  PK5_COLUMN_NAME                 VARCHAR2(30)
  BASE  PK1_COLUMN_TYPE                 VARCHAR2(8)
  BASE  PK2_COLUMN_TYPE                 VARCHAR2(8)
  BASE  PK3_COLUMN_TYPE                 VARCHAR2(8)
  BASE  PK4_COLUMN_TYPE                 VARCHAR2(8)
  BASE  PK5_COLUMN_TYPE                 VARCHAR2(8)
  BASE  LAST_UPDATE_DATE                VARCHAR2(10)
  TRANS DISPLAY_NAME                    VARCHAR2(240)
  TRANS DESCRIPTION                     VARCHAR2(2000)
  CTX   OWNER                           VARCHAR2(4000)
END OBJECT

DEFINE FORM
  KEY   APPLICATION_SHORT_NAME          VARCHAR2(4000)
  KEY   FORM_NAME                       VARCHAR2(4000)
  BASE  AUDIT_ENABLED_FLAG              VARCHAR2(1)
  BASE  LAST_UPDATE_DATE                VARCHAR2(10)
  TRANS USER_FORM_NAME                  VARCHAR2(80)
  TRANS DESCRIPTION                     VARCHAR2(240)
  CTX   OWNER                           VARCHAR2(4000)
END FORM

# -- End Entity Definitions -- 


BEGIN MENU "*NULL*"
  LAST_UPDATE_DATE = "2008/11/14"
  USER_MENU_NAME = "*NULL*"
  OWNER = "ORACLE12.1.3"

END MENU

BEGIN FUNCTION "XXSHIPMTPG"
  FORM = "" "*NULL*"
  TYPE = "JSP"
  PARAMETERS = "*NULL*"
  WEB_HOST_NAME = "*NULL*"
  WEB_AGENT_NAME = "*NULL*"
  WEB_HTML_CALL = "OA.jsp?page=/xxcus/oracle/apps/po/shipment/webui/ShipmtPG"
  WEB_ENCRYPT_PARAMETERS = "N"
  WEB_SECURED = "N"
  WEB_ICON = "*NULL*"
  FUNC_OBJECT = "*NULL*"
  OBJECT_NAME = "*NULL*"
  REGION_CODE = "*NULL*"
  LAST_UPDATE_DATE = "2019/10/23"
  MAINTENANCE_MODE_SUPPORT = "NONE"
  CONTEXT_DEPENDENCE = "RESP"
  JRAD_REF_PATH = "*NULL*"
  USER_FUNCTION_NAME = "Shipment Page"
  OWNER = "ORACLE12.1.3"
END FUNCTION

BEGIN MENU "PO_SUPERUSER_GUI"
  TYPE = "STANDARD"
  LAST_UPDATE_DATE = "1996/07/18"
  USER_MENU_NAME = "Purchasing SuperUser GUI"
  DESCRIPTION = "Oracle Purchasing SuperUser Menu GUI"
  OWNER = "ORACLE12.1.3"

  BEGIN ENTRY
    PROMPT = "Shipment Tracker"
    GRANT_FLAG = "Y"
    LAST_UPDATE_DATE = "2019/11/12"
    SUBMENU = "*NULL*"
    FUNCTION = "XXSHIPMTPG"
    OWNER = "4ILCM"
  END ENTRY
  
END MENU


